<?xml version="1.0" encoding="utf-8"?>
<!-- Generator: Adobe Illustrator 21.0.0, SVG Export Plug-In . SVG Version: 6.00 Build 0)  -->
<svg version="1.1" xmlns="http://www.w3.org/2000/svg" xmlns:xlink="http://www.w3.org/1999/xlink" x="0px" y="0px"
	 viewBox="0 0 450 335" style="enable-background:new 0 0 450 335;" xml:space="preserve">
<style type="text/css">
	.st0{fill:#FFFFFF;}
	.st1{font-family:'Lato-Medium';}
	.st2{font-size:16px;}
	.st3{fill:none;stroke:#000000;stroke-width:4;stroke-miterlimit:10;}
</style>
<g id="Layer_1">
</g>
<g id="skills-1">
	<g id="skills-text-1">
		<g>
			<circle class="st0" cx="65.3" cy="33.1" r="6.1"/>
			<path d="M65.3,29c2.3,0,4.1,1.9,4.1,4.1s-1.9,4.1-4.1,4.1s-4.1-1.9-4.1-4.1S63,29,65.3,29 M65.3,25c-4.5,0-8.1,3.6-8.1,8.1
				s3.6,8.1,8.1,8.1s8.1-3.6,8.1-8.1S69.8,25,65.3,25L65.3,25z"/>
		</g>
		<text transform="matrix(1 1.368330e-03 -1.368330e-03 1 107.1298 36.9973)"><tspan x="0" y="0" class="st1 st2">HTML5/CSS</tspan><tspan x="0" y="24" class="st1 st2">Javascript</tspan><tspan x="0" y="48" class="st1 st2">Jquery, Node.js, AngularJs</tspan><tspan x="0" y="72" class="st1 st2">Python</tspan><tspan x="0" y="96" class="st1 st2">Django</tspan><tspan x="0" y="120" class="st1 st2">Ruby on Rails</tspan><tspan x="0" y="144" class="st1 st2">Obj C</tspan></text>
	</g>
	<g>
		<line class="st3" x1="65" y1="40" x2="65" y2="233"/>
	</g>
	<g id="skills-text-2">
		<text transform="matrix(1 1.368330e-03 -1.368330e-03 1 107.1298 244.9973)"><tspan x="0" y="0" class="st1 st2">Adobe Illustrator, Experience Design,</tspan><tspan x="0" y="24" class="st1 st2">Photoshop, Premiere</tspan><tspan x="0" y="48" class="st1 st2">Final Cut Pro</tspan><tspan x="0" y="72" class="st1 st2">Marvell app</tspan></text>
		<g>
			<circle class="st0" cx="65.9" cy="237.9" r="6.1"/>
			<path d="M65.9,233.8c2.3,0,4.1,1.9,4.1,4.1c0,2.3-1.9,4.1-4.1,4.1c-2.3,0-4.1-1.9-4.1-4.1C61.7,235.6,63.6,233.8,65.9,233.8
				 M65.9,229.8c-4.5,0-8.1,3.6-8.1,8.1s3.6,8.1,8.1,8.1c4.5,0,8.1-3.6,8.1-8.1S70.4,229.8,65.9,229.8L65.9,229.8z"/>
		</g>
	</g>
</g>
</svg>
