<?xml version="1.0" encoding="utf-8"?>
<!-- Generator: Adobe Illustrator 21.0.0, SVG Export Plug-In . SVG Version: 6.00 Build 0)  -->
<svg version="1.1" xmlns="http://www.w3.org/2000/svg" xmlns:xlink="http://www.w3.org/1999/xlink" x="0px" y="0px"
	 viewBox="0 0 450 317" style="enable-background:new 0 0 450 317;" xml:space="preserve">
<style type="text/css">
	.st0{fill:#FFFFFF;}
	.st1{font-family:'Lato-Bold';}
	.st2{font-size:16px;}
	.st3{font-family:'Lato-Medium';}
	.st4{fill:none;stroke:#000000;stroke-width:4;stroke-miterlimit:10;}
</style>
<g id="Layer_1">
</g>
<g id="Layer_7">
	<g id="Layer_8">
		<g>
			<circle class="st0" cx="65.3" cy="33.1" r="6.1"/>
			<path d="M65.3,29c2.3,0,4.1,1.9,4.1,4.1c0,2.3-1.9,4.1-4.1,4.1s-4.1-1.9-4.1-4.1C61.1,30.9,63,29,65.3,29 M65.3,25
				c-4.5,0-8.1,3.6-8.1,8.1c0,4.5,3.6,8.1,8.1,8.1s8.1-3.6,8.1-8.1C73.4,28.6,69.8,25,65.3,25L65.3,25z"/>
		</g>
		<text transform="matrix(1 0 0 1 107.0215 37.1216)"><tspan x="0" y="0" class="st1 st2">UI/UX Designer &amp; Front End Developer</tspan><tspan x="0" y="24" class="st3 st2">Jacques Technology, DECO3800</tspan><tspan x="0" y="48" class="st3 st2">Feb - June 2018, Brisbane</tspan></text>
	</g>
	<g>
		<line class="st4" x1="65" y1="40" x2="65" y2="133"/>
	</g>
	<g id="Layer_9">
		<text transform="matrix(1 0 0 1 108.0215 143.1216)"><tspan x="0" y="0" class="st1 st2">UI/UX Designer &amp; Front End Developer</tspan><tspan x="0" y="24" class="st3 st2">Peentar Dev House</tspan><tspan x="0" y="48" class="st3 st2">Sept - Nov 2017, Jakarta</tspan></text>
		<g>
			<circle class="st0" cx="65.5" cy="138" r="6.1"/>
			<path d="M65.5,133.9c2.3,0,4.1,1.9,4.1,4.1s-1.9,4.1-4.1,4.1s-4.1-1.9-4.1-4.1S63.2,133.9,65.5,133.9 M65.5,129.9
				c-4.5,0-8.1,3.6-8.1,8.1c0,4.5,3.6,8.1,8.1,8.1s8.1-3.6,8.1-8.1C73.6,133.5,70,129.9,65.5,129.9L65.5,129.9z"/>
		</g>
	</g>
	<line class="st4" x1="65" y1="145" x2="65" y2="232"/>
	<g id="Layer_10">
		<text transform="matrix(1 0 0 1 109.0215 242.1216)"><tspan x="0" y="0" class="st1 st2">iOS Developer Intern</tspan><tspan x="0" y="24" class="st3 st2">Jojonomic Pte. Ltd.</tspan><tspan x="0" y="48" class="st3 st2">June - Aug 2017, Jakarta</tspan></text>
		<g>
			<circle class="st0" cx="65.9" cy="237.9" r="6.1"/>
			<path d="M65.9,233.8c2.3,0,4.1,1.9,4.1,4.1s-1.9,4.1-4.1,4.1c-2.3,0-4.1-1.9-4.1-4.1S63.6,233.8,65.9,233.8 M65.9,229.8
				c-4.5,0-8.1,3.6-8.1,8.1c0,4.5,3.6,8.1,8.1,8.1c4.5,0,8.1-3.6,8.1-8.1C74,233.4,70.4,229.8,65.9,229.8L65.9,229.8z"/>
		</g>
	</g>
</g>
</svg>
